-   -   -   1   5   -   -   -
  -   -   5   4   1   -   -
-   -   4   1   5   4   -   -
  -   1   5   4   1   5   -
-   5   4   1   5   4   1   -
  4   1   5   4   1   5   4
1   5   4   1   5   4   1   5
  4   1   5   4   1   5   4
-   -   -   -   -   -   -   -
  -   -   -   -   -   -   -

1   1   1   1   1   1   1   1
  6   -   -   -   -   -   -
5   5   4   7   2   1   6   7
  4   7   -   -   7   -   -
-   6   2   1   6   5   4   7
  -   7   6   -   1   -   -
-   -   5   7   4   7   2   7
  -   -   -   -   -   -   -
-   -   -   -   -   -   -   -
  -   -   -   -   -   -   -

3   -   2   -   -   1   -   4
  1   -   3   -   1   3   5
-   6   -   2   4   -   2   -
  4   2   -   1   -   6   -
1   -   5   7   0   4   -   2
  3   -   -   -   -   -   3
-   3   6   7   2   7   3   -
  -   -   -   3   3   -   -
-   -   -   -   -   -   -   -
  -   -   -   -   -   -   -

3   3   3   -   -   1   1   1
  -   -   3   -   1   -   -
-   -   4   5   5   4   -   -
  -   5   -   7   -   5   -
-   -   7   5   5   7   -   -
  4   -   1   3   1   -   4
-   6   4   -   -   4   6   -
  -   -   -   -   -   -   -
-   -   -   -   -   -   -   -
  -   -   -   -   -   -   -

-   -   -   7   7   -   -   -
  -   -   7   -   -   -   -
-   5   6   1   1   -   -   1
  5   5   6   1   7   -   1
5   4   5   1   1   7   4   -
  5   5   6   1   7   -   1
-   5   6   1   1   -   -   1
  -   -   7   5   1   -   -
-   -   -   7   7   -   -   -
  -   -   -   -   -   -   -

3   -   -   -   -   -   -   3
  3   -   4   4   4   -   3
-   3   4   5   5   4   3   -
  1   4   5   3   5   4   1
1   4   5   3   3   5   4   1
  1   4   5   3   5   4   1
5   5   5   2   2   5   5   5
  2   7   0   4   0   2   0
-   -   -   -   -   -   -   -
  -   -   -   -   -   -   -

-   -   2   2   2   -   -   -
  -   2   4   4   2   -   -
-   2   7   7   7   2   -   -
  2   2   2   2   2   2   -
-   -   1   -   3   -   -   -
  -   1   -   -   3   -   -
6   1   6   1   7   3   6   6
  -   -   -   -   -   -   -
-   -   -   -   -   -   -   -
  -   -   -   -   -   -   -

-   5   5   -   5   5   5   -
  5   2   7   6   1   7   5
3   3   3   3   6   3   3   3
  4   3   4   3   4   3   4
3   5   5   -   5   5   5   3
  5   7   1   6   7   2   5
4   5   1   5   1   5   5   4
  3   3   4   3   4   3   3
-   -   -   -   -   -   -   -
  -   -   -   -   -   -   -

-   1   7   -   7   -   -   -
  5   3   5   7   -   -   -
-   7   1   7   -   -   -   -
  -   3   7   5   -   -   -
-   -   1   3   1   -   -   -
  -   -   5   7   3   -   -
-   -   -   3   5   1   -   -
  -   -   -   7   1   7   -
-   -   -   -   -   -   -   -
  -   -   -   -   -   -   -

1   5   2   6   7   3   1   5
  7   3   1   5   2   6   7
1   5   2   6   7   3   1   5
  4   4   5   5   6   6   6
-   1   1   -   1   -   1   -
  -   -   -   -   -   -   -
-   -   -   -   -   -   -   -
  -   -   -   -   -   -   -
-   -   -   -   -   -   -   -
  -   -   -   -   -   -   -