-   -   -   2   2   2   2   -
  5   6   7   -   -   -   2
4   -   -   3   -   -   -   5
  2   -   -   4   0   1   6
2   -   -   -   5   6   7   1
  2   0   1   5   0   6   4
1   -   -   6   5   6   7   1
  0   3   6   -   -   -   -
-   -   -   -   -   -   -   -
  -   -   -   -   -   -   -

-   2   4   -   -   2   4   -
  6   3   -   -   -   5   3
-   4   -   -   -   -   6   -
  5   7   -   -   -   5   7
-   6   -   -   -   -   6   -
  7   5   -   -   -   7   3
-   6   -   -   -   -   2   -
  -   -   -   -   -   -   -
-   -   -   -   -   -   -   -
  -   -   -   -   -   -   -

-   6   3   4   3   4   6   -
  4   -   -   3   -   -   4
7   -   -   0   0   -   -   7
  7   -   -   3   -   -   1
-   6   4   2   2   7   6   -
  -   -   -   1   -   -   -
-   -   -   0   5   -   -   -
  -   -   -   2   -   -   -
-   -   -   -   -   -   -   -
  -   -   -   -   -   -   -

-   3   -   3   4   5   1   -
  4   -   -   5   0   6   -
6   -   -   4   5   3   -   -
  5   -   6   5   0   -   -
6   -   -   4   7   3   -   -
  5   -   6   7   0   6   -
-   0   7   -   6   -   0   -
  -   -   -   -   -   -   -
-   -   -   -   -   -   -   -
  -   -   -   -   -   -   -

4   -   -   3   3   -   -   4
  1   -   5   4   5   -   1
-   4   -   6   6   -   4   -
  -   2   1   0   1   2   -
-   -   -   6   6   -   -   -
  -   -   7   2   7   -   -
1   5   4   1   6   4   5   1
  -   -   -   -   -   -   -
-   -   -   -   -   -   -   -
  -   -   -   -   -   -   -

6   4   4   7   2   3   4   4
  3   -   -   3   -   -   3
5   0   3   5   4   6   5   7
  6   -   6   6   4   -   6
7   -   -   -   7   -   -   7
  0   5   4   0   6   7   0
-   1   2   3   1   2   3   -
  -   -   -   -   -   -   -
-   -   -   -   -   -   -   -
  -   -   -   -   -   -   -

-   7   6   4   3   3   -   1
  7   -   6   3   -   3   4
0   -   -   -   -   -   0   -
  0   1   6   -   -   6   4
-   6   5   7   4   1   5   1
  -   4   1   2   3   7   6
-   -   -   -   -   -   -   -
  -   -   -   -   -   -   -
-   -   -   -   -   -   -   -
  -   -   -   -   -   -   -

-   -   0   1   1   0   -   -
  -   -   7   7   6   -   -
-   -   3   1   1   6   -   -
  -   3   2   4   7   5   -
-   4   2   4   3   7   5   -
  4   3   5   3   6   4   2
-   5   3   5   6   4   2   -
  -   6   0   7   0   6   -
-   -   -   -   -   -   -   -
  -   -   -   -   -   -   -

-   -   2   5   -   -   -   -
  -   3   2   1   -   -   -
-   5   2   7   3   7   3   7
  2   1   1   4   6   1   6
2   3   6   1   7   1   7   2
  3   1   2   3   2   6   3
-   -   -   -   -   -   -   -
  -   -   -   -   -   -   -
-   -   -   -   -   -   -   -
  -   -   -   -   -   -   -

-   -   3   2   2   3   -   -
  -   7   1   3   7   1   -
-   3   3   4   4   3   3   -
  6   2   3   1   3   2   6
-   5   2   7   2   7   5   -
  -   3   5   -   5   3   -
-   -   2   -   -   2   -   -
  -   -   -   -   -   -   -
-   -   -   -   -   -   -   -
  -   -   -   -   -   -   -