3   2   1   0   0   1   2   3
  3   2   1   0   1   2   3
4   3   2   1   1   2   3   4
  4   3   2   1   2   3   4
5   4   3   2   2   3   4   5
  5   4   3   2   3   4   5
6   5   4   3   3   4   5   6
  6   5   4   3   4   5   6
7   6   5   4   4   5   6   7
  -   -   -   -   -   -   -

-   -   -   5   5   -   -   -
  -   -   -   3   -   -   -
-   -   -   2   4   -   -   -
  -   -   -   6   -   -   -
-   -   -   2   4   -   -   -
  -   2   -   5   -   4   -
1   0   1   0   1   0   1   0
  3   -   3   -   2   -   6
-   -   -   -   -   -   -   -
  -   -   -   -   -   -   -

-   -   -   -   1   -   -   -
  7   4   3   5   -   -   -
6   -   -   1   -   -   -   -
  -   -   -   5   3   4   7
6   -   -   -   1   -   -   6
  7   4   3   5   -   -   -
-   -   -   1   -   -   -   6
  -   -   -   5   3   4   7
-   -   -   -   -   -   -   -
  -   -   -   -   -   -   -

-   -   -   -   7   3   6   -
  -   -   3   7   3   6   3
-   -   5   7   3   6   3   -
  -   6   7   3   6   7   -
-   7   7   3   6   1   -   -
  3   7   3   6   3   -   -
5   6   2   7   1   -   -   -
  -   -   -   -   -   -   -
-   -   -   -   -   -   -   -
  -   -   -   -   -   -   -

5   -   -   -   -   -   -   5
  5   -   6   6   6   -   5
-   5   4   -   -   4   5   -
  -   3   -   -   -   3   -
-   6   0   -   -   0   6   -
  -   3   -   -   -   3   -
-   -   4   -   -   4   -   -
  -   -   6   6   6   -   -
-   -   -   -   -   -   -   -
  -   -   -   -   -   -   -

-   7   0   -   -   0   7   -
  7   -   0   -   0   -   7
7   1   -   0   0   -   1   7
  7   1   2   0   2   1   7
7   6   3   2   2   3   6   7
  7   -   3   2   3   -   7
-   7   7   3   3   7   7   -
  -   -   -   3   -   -   -
-   -   -   -   -   -   -   -
  -   -   -   -   -   -   -

-   3   -   1   -   7   -   6
  5   -   7   -   7   -   6
6   -   0   -   5   -   3   -
  -   2   -   1   -   5   -
-   4   -   3   -   4   -   -
  2   -   3   -   2   -   -
-   -   4   -   6   -   -   -
  -   -   -   5   -   -   -
-   -   -   -   -   -   -   -
  -   -   -   -   -   -   -

-   -   -   -   1   -   -   -
  -   -   -   -   3   -   -
6   1   3   1   2   1   4   1
  -   -   -   -   6   -   -
-   -   -   4   1   -   -   -
  -   -   1   -   3   -   -
-   -   -   2   1   -   -   -
  -   -   -   -   4   -   -
-   -   -   6   1   -   -   -
  -   -   -   6   -   -   -

-   -   -   5   4   -   -   -
  -   -   4   1   0   -   -
-   -   -   2   3   -   -   -
  -   1   4   -   2   2   -
-   3   1   2   5   1   4   -
  -   4   2   -   0   4   -
-   -   -   -   -   -   -   -
  -   -   -   -   -   -   -
-   -   -   -   -   -   -   -
  -   -   -   -   -   -   -

-   -   -   -   1   -   -   -
  -   -   -   1   -   -   -
-   2   -   -   1   -   5   -
  5   -   -   1   -   -   0
-   6   -   -   1   -   4   -
  -   0   -   1   -   5   -
-   -   5   5   0   1   -   -
  -   -   -   -   -   -   -
-   -   -   -   -   -   -   -
  -   -   -   -   -   -   -